{
    "nativeSymbol": "NAT",
    "nativeFtsoDecimals": 5,
    "nativeElasticBandWidthPPM": 0,
    "wrappedNativeName": "Wrapped NAT",
    "wrappedNativeSymbol": "WNAT",
    "stateConnectorAddress": "0x1000000000000000000000000000000000000001",
    "flareDaemonAddress": "0x1000000000000000000000000000000000000002",
    "priceSubmitterAddress": "0x1000000000000000000000000000000000000003",
    "distributionTreasuryAddress": "0x1000000000000000000000000000000000000004",
    "incentivePoolTreasuryAddress": "0x1000000000000000000000000000000000000005",
    "initialAirdropAddress": "0x1000000000000000000000000000000000000006",
    "governanceSettingsAddress": "0x1000000000000000000000000000000000000007",
    "deployerPrivateKey": "<use .env: DEPLOYER_PRIVATE_KEY>",
    "genesisGovernancePrivateKey": "<use .env: GENESIS_GOVERNANCE_PRIVATE_KEY>",
    "governancePrivateKey": "<use .env: GOVERNANCE_PRIVATE_KEY>",
    "governancePublicKey": "<use .env: GOVERNANCE_PUBLIC_KEY>",
    "governanceTimelock": 1,
    "governanceExecutorPublicKey": "<use .env: GOVERNANCE_EXECUTOR_PUBLIC_KEY>",
    "totalNativeSupplyNAT":  100000000000,
    "totalExcludedSupplyNAT": 68000000000,
    "systemStart": 0,
    "initialAirdropStart": 1654430400,
    "incentivePoolStart": 16684524000,
    "initialAirdropLatestStart": 16675632000,
    "distributionLatestEntitlementStart": 16832016000,
    "initialAirdropWei": "4 200 000 000 000 000 000 000 000 000",
    "incentivePoolWei": "20 000 000 000 000 000 000 000 000 000",
    "distributionTotalEntitlementWei": "23 800 000 000 000 000 000 000 000 000",
    "scheduledInflationPercentageBIPS": [1000, 800, 600],
    "rewardEpochDurationSeconds": 180,
    "revealEpochDurationSeconds": 45,
    "priceEpochDurationSeconds": 90,
    "inflationStartDelaySeconds": 0,
    "rewardEpochsStartDelayPriceEpochs": 3,
    "votePowerIntervalFraction": 4,
    "defaultVoterWhitelistSize": 100,
    "flareDaemonGasExceededHoldoffBlocks": 100,
    "maxVotePowerNatThresholdFraction": 10,
    "maxVotePowerAssetThresholdFraction": 10,
    "lowAssetThresholdUSDDec5": 200000000,
    "highAssetThresholdUSDDec5": 3000000000,
    "highAssetTurnoutThresholdBIPS": 100,
    "lowNatTurnoutThresholdBIPS": 300,
    "elasticBandRewardBIPS": 0,
    "priceDeviationThresholdBIPS": 10000,
    "trustedAddresses": [
        "0xc783df8a850f42e7f7e57013759c285caa701eb6",
        "0xead9c93b79ae7c1591b1fb5323bd777e86e150d4",
        "0xe5904695748fe4a84b40b3fc79de2277660bd1d3",
        "0x92561f28ec438ee9831d00d1d59fbdc981b762b2",
        "0x2ffd013aaa7b5a7da93336c2251075202b33fb2b"
    ],
    "executorFeeValueUpdateOffsetEpochs": 3,
    "executorMinFeeValueWei": "0",
    "executorMaxFeeValueNAT": 100,
    "executorRegisterFeeValueNAT": 100,
    "rewardFeePercentageUpdateOffsetEpochs": 3,
    "defaultRewardFeePercentageBIPS": 0,
    "ftsoRewardExpiryOffsetDays": 0.01,
    "initialWnatPriceUSDDec5": 0,
    "priceEpochCyclicBufferSize": 10,
    "inflationReceivers": ["FtsoRewardManager"],
    "inflationSharingBIPS": [10000],
    "inflationTopUpTypes": [0],
    "inflationTopUpFactorsx100": [300],
    "inflationGasLimit": 3000000,
    "ftsoManagerGasLimit": 40000000,
    "incentivePoolGasLimit": 3000000,
    "distributionToDelegatorsGasLimit": 25000000,
    "deployDummyXAssetTokensAndMinters": false,
    "deployNATFtso": true,
    "NATMultiAssets": ["XRP", "LTC", "DOGE"],
    "assets": [
        {
            "assetSymbol": "XRP",
            "assetDecimals": 6,
            "ftsoDecimals": 5,
            "elasticBandWidthPPM": 0,
            "xAssetName": "xAsset XRP",
            "xAssetSymbol": "xXRP",
            "dummyAssetMinterMax": 7000000000,
            "initialPriceUSDDec5": 0
        },
        {
            "assetSymbol": "LTC",
            "assetDecimals": 8,
            "ftsoDecimals": 5,
            "elasticBandWidthPPM": 0,
            "xAssetName": "xAsset Litecoin",
            "xAssetSymbol": "xLTC",
            "dummyAssetMinterMax": 4000000000,
            "initialPriceUSDDec5": 0
        },
        {
            "assetSymbol": "XLM",
            "assetDecimals": 6,
            "ftsoDecimals": 5,
            "elasticBandWidthPPM": 0,
            "xAssetName": "xAsset XLM (Lumen)",
            "xAssetSymbol": "xXLM",
            "dummyAssetMinterMax": 7000000000,
            "initialPriceUSDDec5": 0
        },
        {
            "assetSymbol": "DOGE",
            "assetDecimals": 8,
            "ftsoDecimals": 5,
            "elasticBandWidthPPM": 0,
            "xAssetName": "xAsset Dogecoin",
            "xAssetSymbol": "xDOGE",
            "dummyAssetMinterMax": 13000000000000,
            "initialPriceUSDDec5": 0
        },
        {
            "assetSymbol": "ADA",
            "assetDecimals": 8,
            "ftsoDecimals": 5,
            "elasticBandWidthPPM": 0,
            "xAssetName": "xAsset ADA (Cardano)",
            "xAssetSymbol": "xADA",
            "dummyAssetMinterMax": 45000000000,
            "initialPriceUSDDec5": 0
        },
        {
            "assetSymbol": "ALGO",
            "assetDecimals": 8,
            "ftsoDecimals": 5,
            "elasticBandWidthPPM": 0,
            "xAssetName": "xAsset Algorand",
            "xAssetSymbol": "xALGO",
            "dummyAssetMinterMax": 5000000000,
            "initialPriceUSDDec5": 0
        },
        {
            "assetSymbol": "BCH",
            "assetDecimals": 8,
            "ftsoDecimals": 5,
            "elasticBandWidthPPM": 0,
            "xAssetName": "xAsset Bitcoin Cash",
            "xAssetSymbol": "xBCH",
            "dummyAssetMinterMax": 21000000000,
            "initialPriceUSDDec5": 0
        },
        {
            "assetSymbol": "DGB",
            "assetDecimals": 8,
            "ftsoDecimals": 5,
            "elasticBandWidthPPM": 0,
            "xAssetName": "xAsset Digibyte",
            "xAssetSymbol": "xDGB",
            "dummyAssetMinterMax": 10000000000,
            "initialPriceUSDDec5": 0
        },
        {
            "assetSymbol": "BTC",
            "assetDecimals": 6,
            "ftsoDecimals": 5,
            "elasticBandWidthPPM": 0,
            "xAssetName": "xAsset BTC",
            "xAssetSymbol": "xBTC",
            "dummyAssetMinterMax": 7000000000,
            "initialPriceUSDDec5": 0
        },
        {
            "assetSymbol": "ETH",
            "assetDecimals": 18,
            "ftsoDecimals": 5,
            "elasticBandWidthPPM": 0,
            "xAssetName": "xAsset ETH",
            "xAssetSymbol": "xETH",
            "dummyAssetMinterMax": 10000000000,
            "initialPriceUSDDec5": 0
        },
        {
            "assetSymbol": "FIL",
            "assetDecimals": 18,
            "ftsoDecimals": 5,
            "elasticBandWidthPPM": 0,
            "xAssetName": "xAsset FIL",
            "xAssetSymbol": "xFIL",
            "dummyAssetMinterMax": 10000000000,
            "initialPriceUSDDec5": 0
        }
    ],
    "proposers": [
        "0x1a16DC5ec4f48Ed769949855C3bC3a1d10c72A95",
        "0x893baB99798BCF5e0faB09Ad5CE61872B951F0a5"
    ]
}
