[
  {
    "name": "StateConnector",
    "contractName": "StateConnector.sol",
    "address": "0x1000000000000000000000000000000000000001"
  },
  {
    "name": "FlareDaemon",
    "contractName": "FlareDaemon.sol",
    "address": "0x1000000000000000000000000000000000000002"
  },
  {
    "name": "PriceSubmitter",
    "contractName": "PriceSubmitter.sol",
    "address": "0x1000000000000000000000000000000000000003"
  },
  {
    "name": "DistributionTreasury",
    "contractName": "DistributionTreasury.sol",
    "address": "0x1000000000000000000000000000000000000004"
  },
  {
    "name": "IncentivePoolTreasury",
    "contractName": "IncentivePoolTreasury.sol",
    "address": "0x1000000000000000000000000000000000000005"
  },
  {
    "name": "InitialAirdrop",
    "contractName": "InitialAirdrop.sol",
    "address": "0x410d1879D06c1C38cD963AE3d33B309f796bac66"
  },
  {
    "name": "GovernanceSettings",
    "contractName": "GovernanceSettings.sol",
    "address": "0x1000000000000000000000000000000000000007"
  },
  {
    "name": "AddressUpdater",
    "contractName": "AddressUpdater.sol",
    "address": "0xbAF89d873d198FF78E72D2745B01cBA3c6e5BE6B"
  },
  {
    "name": "InflationAllocation",
    "contractName": "InflationAllocation.sol",
    "address": "0x260371e0CF561887C6Da270CC3Be84C2FaB5444f"
  },
  {
    "name": "Inflation",
    "contractName": "Inflation.sol",
    "address": "0xEfd7a680Db05F1dCD86EB5a074897F502C8601A0"
  },
  {
    "name": "Supply",
    "contractName": "Supply.sol",
    "address": "0x8577D2D50827bCE2EC1dc9Cf9F1199826781D5AF"
  },
  {
    "name": "FtsoRewardManager",
    "contractName": "FtsoRewardManager.sol",
    "address": "0x85627d71921AE25769f5370E482AdA5E1e418d37"
  },
  {
    "name": "CleanupBlockNumberManager",
    "contractName": "CleanupBlockNumberManager.sol",
    "address": "0xB5cC96c7831Db2b446eA5BD1b006020DD32B6d3a"
  },
  {
    "name": "Escrow",
    "contractName": "Escrow.sol",
    "address": "0x42A362eE27e239c17d97DA5765D052779AcfDC94"
  },
  {
    "name": "FtsoRegistry",
    "contractName": "FtsoRegistry.sol",
    "address": "0x13DC2b5053857AE17a4f95aFF55530b267F3E040"
  },
  {
    "name": "VoterWhitelister",
    "contractName": "VoterWhitelister.sol",
    "address": "0x0F45493e4C321b238e1fA242692BFFf3f30fBdfD"
  },
  {
    "name": "DistributionToDelegators",
    "contractName": "DistributionToDelegators.sol",
    "address": "0x32c6379B2978A9aB75993cA82e3ADc77dd50010C"
  },
  {
    "name": "IncentivePoolAllocation",
    "contractName": "IncentivePoolAllocation.sol",
    "address": "0xa071b43060DaA8eaA0d14DBE5Ea03ed18c9ed1d6"
  },
  {
    "name": "IncentivePool",
    "contractName": "IncentivePool.sol",
    "address": "0xbcE1972De5d1598a948A36186eCeBFD4690F3a5C"
  },
  {
    "name": "ValidatorRegistry",
    "contractName": "ValidatorRegistry.sol",
    "address": "0x9907886ceF3DfDE3D679e1083fb0F610e9A527a0"
  },
  {
    "name": "FtsoManager",
    "contractName": "FtsoManager.sol",
    "address": "0x2F5107461D1BF7D4D6d3b2b577621b2071343166"
  },
  {
    "name": "WNat",
    "contractName": "WNat.sol",
    "address": "0x1D80c49BbBCd1C0911346656B529DF9E5c2F783d"
  },
  {
    "name": "CombinedNat",
    "contractName": "WNat.sol",
    "address": "0x1D80c49BbBCd1C0911346656B529DF9E5c2F783d"
  },
  {
    "name": "GovernanceVotePower",
    "contractName": "GovernanceVotePower.sol",
    "address": "0x47dD40deDCda8B4EFDEf5101999Af33B7cF787D7"
  },
  {
    "name": "FtsoXrp",
    "contractName": "Ftso.sol",
    "address": "0x2d433f7dF375C62c7831bf01b770eC8746c8F44f"
  },
  {
    "name": "FtsoLtc",
    "contractName": "Ftso.sol",
    "address": "0x9A9E3981B6e0F23D71caa9986D11967FB95209cA"
  },
  {
    "name": "FtsoXlm",
    "contractName": "Ftso.sol",
    "address": "0xCc56e4d0B64d350Ad495BCa859d8E4375458Ed55"
  },
  {
    "name": "FtsoDoge",
    "contractName": "Ftso.sol",
    "address": "0x0cBD1657bfaC82daf26caCABE3c18620403158eB"
  },
  {
    "name": "FtsoAda",
    "contractName": "Ftso.sol",
    "address": "0x83D539d9eB43eACAcb40D5aDDE506Fd63A45cbFc"
  },
  {
    "name": "FtsoAlgo",
    "contractName": "Ftso.sol",
    "address": "0x8801FC5664A0334b767b6E662736F9e7B9e26403"
  },
  {
    "name": "FtsoBch",
    "contractName": "Ftso.sol",
    "address": "0x22701D23dD2AC004c017ECA81505143ce6aa6B13"
  },
  {
    "name": "FtsoDgb",
    "contractName": "Ftso.sol",
    "address": "0xC79644093290AC7B700107a841562Cb1256b5e56"
  },
  {
    "name": "FtsoBtc",
    "contractName": "Ftso.sol",
    "address": "0xF0255d0Cc1282000efaED2f0d747cf236D64D352"
  },
  {
    "name": "FtsoEth",
    "contractName": "Ftso.sol",
    "address": "0xA0D8aF011D407930740A9a142c63eb880C472d6f"
  },
  {
    "name": "FtsoFil",
    "contractName": "Ftso.sol",
    "address": "0xe48eFe08557BBcCD0b834913319fE1fb7E82d28E"
  },
  {
    "name": "FtsoWnat",
    "contractName": "Ftso.sol",
    "address": "0x6d318B71b74cF249211C06b85F7eaa561fd9BB2D"
  },
  {
    "name": "FlareAssetRegistry",
    "contractName": "FlareAssetRegistry.sol",
    "address": "0x9a039B2677EDD9cbfAf65AF080b08749c6b59487"
  },
  {
    "name": "ValidatorRewardManager",
    "contractName": "ValidatorRewardManager.sol",
    "address": "0xc0CF3Aaf93bd978C5BC662564Aa73E331f2eC0B5"
  },
  {
    "name": "PollingFoundation",
    "contractName": "PollingFoundation.sol",
    "address": "0x258E20bdbb2d891521308d2af381B1BD962B67B5"
  },
  {
    "name": "ClaimSetupManager",
    "contractName": "ClaimSetupManager.sol",
    "address": "0xD56c0Ea37B848939B59e6F5Cda119b3fA473b5eB"
  },
  {
    "name": "DelegationAccount",
    "contractName": "DelegationAccount.sol",
    "address": "0x7fBc8623ac906bd3D636389b6D577E95B7D21Ef5"
  }
]
